<?xml version="1.0" encoding="utf-8"?>
<!-- Generated by IcoMoon.io -->
<!DOCTYPE svg PUBLIC "-//W3C//DTD SVG 1.1//EN" "http://www.w3.org/Graphics/SVG/1.1/DTD/svg11.dtd">
<svg version="1.1" xmlns="http://www.w3.org/2000/svg" xmlns:xlink="http://www.w3.org/1999/xlink" width="1220" height="1024" viewBox="0 0 1220 1024">
<g id="icomoon-ignore">
</g>
<path fill="#000" d="M1044.564 496.92c-11.139-27.633-120.342-279.499-391.23-305.461-14.438-1.928-27.376-2.742-40.314-2.742-0.643 0-1.714 0-2.828 0.129-0.985-0.129-2.271-0.129-2.699-0.129-13.238 0-26.005 0.814-39.072 2.742-272.13 25.962-381.419 277.871-392.729 305.461-1.328 3.213-2.313 6.512-2.87 9.939-0.943 6.683 0 13.624 2.87 19.964 11.31 27.847 120.513 279.413 391.358 305.632 14.395 1.757 27.247 2.656 40.442 2.656 0.471 0 1.628 0.171 2.613 0.171 1.071 0 2.356-0.171 2.956-0.171 12.981 0 25.876-0.9 38.986-2.442 272.43-26.39 381.547-278.513 392.643-305.932 1.371-2.999 2.399-6.255 2.785-9.468 1.071-6.812 0.043-13.838-2.913-20.35zM643.909 762.752c-11.224 1.628-20.95 2.399-30.932 2.399h-5.569c-10.025 0-19.879-0.814-32.345-2.399-206.282-19.921-305.675-201.227-329.281-250.923 23.606-49.696 123.17-230.788 330.609-250.923 11.353-1.542 21.078-2.099 28.918-2.228l7.669 0.129c9.811 0 19.707 0.557 32.217 2.185 206.325 20.050 305.718 201.398 329.152 250.838-23.434 49.868-122.998 231.002-330.437 250.923z"></path>
<path fill="#000" d="M616.534 312.744c-109.846 0-199.385 89.368-199.385 199.342 0 110.017 89.539 199.513 199.385 199.513 109.889 0 199.428-89.496 199.428-199.513 0-109.974-89.539-199.342-199.428-199.342zM616.534 641.339c-71.246 0-129.424-57.922-129.424-129.253 0-71.16 58.136-129.253 129.424-129.253s129.382 58.093 129.382 129.253c-0.043 71.331-58.093 129.253-129.382 129.253z"></path>
</svg>
