<?xml version="1.0" encoding="utf-8"?>
<!-- Generated by IcoMoon.io -->
<!DOCTYPE svg PUBLIC "-//W3C//DTD SVG 1.1//EN" "http://www.w3.org/Graphics/SVG/1.1/DTD/svg11.dtd">
<svg version="1.1" xmlns="http://www.w3.org/2000/svg" xmlns:xlink="http://www.w3.org/1999/xlink" width="1220" height="1024" viewBox="0 0 1220 1024">
<g id="icomoon-ignore">
</g>
<path fill="#000" d="M920.195 827.143l-125.783-186.018c54.452-52.952 88.382-126.854 88.382-208.596 0-160.699-130.71-291.451-291.409-291.451-160.656 0-291.409 130.753-291.409 291.451 0 160.656 130.753 291.366 291.409 291.366 43.099 0 83.927-9.682 120.728-26.519l125.526 185.59 82.556-55.823zM399.669 432.529c0-105.776 86.026-191.802 191.759-191.802 105.776 0 191.759 86.026 191.759 191.802 0 105.69-85.983 191.716-191.759 191.716-105.733 0-191.759-86.026-191.759-191.716z"></path>
</svg>
