<?xml version="1.0" encoding="utf-8"?>
<!-- Generated by IcoMoon.io -->
<!DOCTYPE svg PUBLIC "-//W3C//DTD SVG 1.1//EN" "http://www.w3.org/Graphics/SVG/1.1/DTD/svg11.dtd">
<svg version="1.1" xmlns="http://www.w3.org/2000/svg" xmlns:xlink="http://www.w3.org/1999/xlink" width="1220" height="1024" viewBox="0 0 1220 1024">
<g id="icomoon-ignore">
</g>
<path fill="#000" d="M100.978 171.795h1018.302v55.094h-1018.302v-55.094z"></path>
<path fill="#000" d="M149.689 813.219l38.986 38.943 421.476-421.519 421.476 421.519 38.943-38.943-460.419-460.504z"></path>
</svg>
